…
<!--------------------------- Start your work below --------------------------->

``` r
library(tidyr)
steam_games_tidy <- steam_games_filtered %>%
  select(name, types, original_price, discount_price, discount_percent,
         discount_level, review_level, high_price)

print(steam_games_tidy)
```

    ## # A tibble: 3,134 × 8
    ##    name      types original_price discount_price discount_percent discount_level
    ##    <chr>     <chr>          <dbl>          <dbl>            <dbl> <chr>         
    ##  1 Crankies… app             625.           10.5             98.3 High Discount 
    ##  2 Crankies… app             625.           10.5             98.3 High Discount 
    ##  3 Fitzzle … app             625.           56.3             91.0 High Discount 
    ##  4 Digit Da… app             625.           56.3             91.0 High Discount 
    ##  5 Fitzzle … app             625.           56.3             91.0 High Discount 
    ##  6 Little R… app             625.           10.5             98.3 High Discount 
    ##  7 Kicking … app             625.           56.3             91.0 High Discount 
    ##  8 Fitzzle … app             625.           56.3             91.0 High Discount 
    ##  9 QLORB 2   app             625.           10.5             98.3 High Discount 
    ## 10 Depth Si… app             625.           10.5             98.3 High Discount 
    ## # ℹ 3,124 more rows
    ## # ℹ 2 more variables: review_level <chr>, high_price <chr>
…
``` r
steam_games_untidy <- steam_games_tidy %>%
  mutate(
    price_bundle = paste0("orig=", original_price, ";disc=", discount_price),
    discount_bundle = paste0("pct=", round(discount_percent, 2), ";lvl=", discount_level)
  ) %>%
  select(name, types, price_bundle, discount_bundle, review_level, high_price)
print(steam_games_untidy)
```

    ## # A tibble: 3,134 × 6
    ##    name               types price_bundle discount_bundle review_level high_price
    ##    <chr>              <chr> <chr>        <chr>           <chr>        <chr>     
    ##  1 Crankies Workshop… app   orig=624.74… pct=98.32;lvl=… Mixed        High Price
    ##  2 Crankies Workshop… app   orig=624.74… pct=98.32;lvl=… Mixed        High Price
    ##  3 Fitzzle Wise Owls  app   orig=624.74… pct=90.99;lvl=… Other        High Price
    ##  4 Digit Daze         app   orig=624.74… pct=90.99;lvl=… Positive     High Price
    ##  5 Fitzzle Majestic … app   orig=624.74… pct=90.99;lvl=… Other        High Price
    ##  6 Little Reds Fores… app   orig=624.74… pct=98.32;lvl=… Other        High Price
    ##  7 Kicking Kittens: … app   orig=624.74… pct=90.99;lvl=… Mostly posi… High Price
    ##  8 Fitzzle Mighty Be… app   orig=624.74… pct=90.99;lvl=… Mostly posi… High Price
    ##  9 QLORB 2            app   orig=624.74… pct=98.32;lvl=… Mostly posi… High Price
    ## 10 Depth Siege Atlan… app   orig=624.74… pct=98.32;lvl=… Mixed        High Price
    ## # ℹ 3,124 more rows
…
print(steam_games_retiddy)
```

    ## # A tibble: 3,134 × 8
    ##    name      types original_price discount_price discount_percent discount_level
    ##    <chr>     <chr>          <dbl>          <dbl>            <dbl> <chr>         
    ##  1 Crankies… app             625.           10.5             98.3 High Discount 
    ##  2 Crankies… app             625.           10.5             98.3 High Discount 
    ##  3 Fitzzle … app             625.           56.3             91.0 High Discount 
    ##  4 Digit Da… app             625.           56.3             91.0 High Discount 
    ##  5 Fitzzle … app             625.           56.3             91.0 High Discount 
    ##  6 Little R… app             625.           10.5             98.3 High Discount 
    ##  7 Kicking … app             625.           56.3             91.0 High Discount 
    ##  8 Fitzzle … app             625.           56.3             91.0 High Discount 
    ##  9 QLORB 2   app             625.           10.5             98.3 High Discount 
    ## 10 Depth Si… app             625.           10.5             98.3 High Discount 
    ## # ℹ 3,124 more rows
    ## # ℹ 2 more variables: review_level <chr>, high_price <chr>
…
