…
    ## [1] "tbl_df"     "tbl"        "data.frame"

``` r
#I'll explore the general features of the trees grouped by species, using the summarise grammar.
vancouver_trees %>%
  group_by(species_name) %>% 
  summarise(
    mean_height = mean(height_range_id), 
    mean_diameter = mean(diameter))
```

    ## # A tibble: 283 × 3
    ##    species_name   mean_height mean_diameter
    ##    <chr>                <dbl>         <dbl>
    ##  1 ABIES                 3.28         12.9 
    ##  2 ACERIFOLIA   X        4.63         20.8 
    ##  3 ACUMINATA             2.57         10.9 
    ##  4 ACUTISSIMA            2.76          8.87
    ##  5 AILANTHIFOLIA         5            32   
    ##  6 ALBA                  3.12         19.4 
    ##  7 ALBA-SINENSIS         2.67          8.67
    ##  8 ALNIFOLIA             1.77          5.23
    ##  9 ALPINUM               2             8   
    ## 10 ALTISSIMA             3.5          15.9 
    ## # ℹ 273 more rows

``` r
#I'm also interested in the number and diversity of trees in different neighbourhoods.

vancouver_trees %>%
  group_by(neighbourhood_name) %>% 
  summarise(
    n_trees = n(),                            
    n_species = n_distinct(species_name))
```

    ## # A tibble: 22 × 3
    ##    neighbourhood_name       n_trees n_species
    ##    <chr>                      <int>     <int>
    ##  1 ARBUTUS-RIDGE               5169       121
    ##  2 DOWNTOWN                    5159        79
    ##  3 DUNBAR-SOUTHLANDS           9415       161
    ##  4 FAIRVIEW                    4002       119
    ##  5 GRANDVIEW-WOODLAND          6703       146
    ##  6 HASTINGS-SUNRISE           10547       176
    ##  7 KENSINGTON-CEDAR COTTAGE   11042       159
    ##  8 KERRISDALE                  6936       138
    ##  9 KILLARNEY                   6148       122
    ## 10 KITSILANO                   8115       171
    ## # ℹ 12 more rows
…
